Simulating NFL seasons using nflseedR • nflseedR
…
We can see the Bears got 5.42 wins on average. They made the playoffs 14% of the time, and won the division 7% of the time. They won the Super Bowl in 0%, and have no realistic shot at the #1 or even a top 5 draft pick. The teams section of the output will show how a team did in each simulated season.

sims$teams %>% dplyr::filter(team == "CHI")
#> # A tibble: 1,000 x 16
#>      sim team  conf  division games  wins true_wins win_pct div_pct conf_pct
#>    <dbl> <chr> <chr> <chr>    <int> <dbl>     <int>   <dbl>   <dbl>    <dbl>
#>  1     1 CHI   NFC   NFC Nor…    16     6         6  0.375    0.333   0.333 
#>  2     2 CHI   NFC   NFC Nor…    16    12        12  0.75     0.833   0.833 
#>  3     3 CHI   NFC   NFC Nor…    16    12        12  0.75     0.833   0.75  
#>  4     4 CHI   NFC   NFC Nor…    16     4         4  0.25     0       0.167 
#>  5     5 CHI   NFC   NFC Nor…    16     6         6  0.375    0.333   0.417 
#>  6     6 CHI   NFC   NFC Nor…    16     5         5  0.312    0.667   0.417 
#>  7     7 CHI   NFC   NFC Nor…    16     1         1  0.0625   0.167   0.0833
#>  8     8 CHI   NFC   NFC Nor…    16     8         8  0.5      0.5     0.583 
#>  9     9 CHI   NFC   NFC Nor…    16     3         3  0.188    0.167   0.0833
#> 10    10 CHI   NFC   NFC Nor…    16     7         7  0.438    0.5     0.417 
#> # … with 990 more rows, and 6 more variables: sov <dbl>, sos <dbl>,
#> #   div_rank <dbl>, seed <dbl>, exit <dbl>, draft_order <dbl>
…
